%YAML 1.1
%TAG !u! tag:unity3d.com,2011:
--- !u!1 &4405604013131574375
GameObject:
  m_ObjectHideFlags: 0
  m_CorrespondingSourceObject: {fileID: 0}
  m_PrefabInstance: {fileID: 0}
  m_PrefabAsset: {fileID: 0}
  serializedVersion: 6
  m_Component:
  - component: {fileID: 4405604013131574369}
  - component: {fileID: 4924401196721254919}
  - component: {fileID: 4405604013131574370}
  m_Layer: 0
  m_Name: Blood
  m_TagString: Untagged
  m_Icon: {fileID: 0}
  m_NavMeshLayer: 0
  m_StaticEditorFlags: 0
  m_IsActive: 1
--- !u!4 &4405604013131574369
Transform:
  m_ObjectHideFlags: 0
  m_CorrespondingSourceObject: {fileID: 0}
  m_PrefabInstance: {fileID: 0}
  m_PrefabAsset: {fileID: 0}
  m_GameObject: {fileID: 4405604013131574375}
  m_LocalRotation: {x: 0.7071068, y: -0, z: -6.2400854e-24, w: 0.7071068}
  m_LocalPosition: {x: 0.0098, y: -0.1304, z: -0.0185}
  m_LocalScale: {x: 0.16381896, y: 0.16381896, z: 0.16381894}
  m_Children: []
  m_Father: {fileID: 0}
  m_RootOrder: 0
  m_LocalEulerAnglesHint: {x: 90, y: 0, z: 0}
--- !u!114 &4924401196721254919
MonoBehaviour:
  m_ObjectHideFlags: 0
  m_CorrespondingSourceObject: {fileID: 0}
  m_PrefabInstance: {fileID: 0}
  m_PrefabAsset: {fileID: 0}
  m_GameObject: {fileID: 4405604013131574375}
  m_Enabled: 0
  m_EditorHideFlags: 0
  m_Script: {fileID: 11500000, guid: 6944f1d49f305f943a82dfc92ce2205c, type: 3}
  m_Name: 
  m_EditorClassIdentifier: 
  paintIn: 0
  interval: 0
  preview: 0
  priority: 0
  pressure: 1
  connector:
    hitSpacing: 0
    hitLimit: 10
    connectHits: 0
  lastPosition: {x: 0, y: 0, z: 0}
--- !u!114 &4405604013131574370
MonoBehaviour:
  m_ObjectHideFlags: 0
  m_CorrespondingSourceObject: {fileID: 0}
  m_PrefabInstance: {fileID: 0}
  m_PrefabAsset: {fileID: 0}
  m_GameObject: {fileID: 4405604013131574375}
  m_Enabled: 1
  m_EditorHideFlags: 0
  m_Script: {fileID: 11500000, guid: b36498e7e45483f478ff74ab3f1cb21c, type: 3}
  m_Name: 
  m_EditorClassIdentifier: 
  layers:
    serializedVersion: 2
    m_Bits: 55
  targetModel: {fileID: 0}
  group:
    index: 0
  targetTexture: {fileID: 0}
  blendMode:
    Index: 0
    Color: {r: 1, g: 1, b: 1, a: 1}
    Texture: {fileID: 0}
    Kernel: 1
    Channels: {x: 1, y: 1, z: 1, w: 1}
  texture: {fileID: 2800000, guid: 06074ef80d335b94f83e4316e03bf34e, type: 3}
  shape: {fileID: 0}
  shapeChannel: 3
  color: {r: 0.6911765, g: 0, b: 0, a: 1}
  opacity: 1
  angle: 0
  scale: {x: 1, y: 1, z: 3.83}
  radius: 0.2
  hardness: 1
  wrapping: 0
  normalFront: 0.9
  normalBack: 0
  normalFade: 0.1
  tileTexture: {fileID: 0}
  tileTransform: {fileID: 0}
  tileOpacity: 3
  tileTransition: 4
  modifiers:
    modifiers:
    - id: 0
    modifierDatas: []
  references:
    version: 1
    00000000:
      type: {class: P3dModifyColorRandom, ns: PaintIn3D, asm: PaintIn3D}
      data:
        preview: 1
        unique: 1
        gradient:
          serializedVersion: 2
          key0: {r: 1, g: 0, b: 0.010215759, a: 1}
          key1: {r: 0.509434, g: 0, b: 0, a: 1}
          key2: {r: 0, g: 0, b: 0, a: 0}
          key3: {r: 0, g: 0, b: 0, a: 0}
          key4: {r: 0, g: 0, b: 0, a: 0}
          key5: {r: 0, g: 0, b: 0, a: 0}
          key6: {r: 0, g: 0, b: 0, a: 0}
          key7: {r: 0, g: 0, b: 0, a: 0}
          ctime0: 0
          ctime1: 54356
          ctime2: 0
          ctime3: 0
          ctime4: 0
          ctime5: 0
          ctime6: 0
          ctime7: 0
          atime0: 0
          atime1: 65535
          atime2: 0
          atime3: 0
          atime4: 0
          atime5: 0
          atime6: 0
          atime7: 0
          m_Mode: 0
          m_NumColorKeys: 2
          m_NumAlphaKeys: 2
        blend: 0
